00:e6:49:d5:7f:6f:f9:cf:f6:55:cb:79:ee:38:38:0c:8f:82:78:eb:37:4a:90:05:9b:0f:f0:65:34:82:9d:33:7c:75:3d:0e:59:af:ed:6f:a4:89:f0:15:cf:33
00e649d57f6ff9cff655cb79ee38380c8f8278eb374a90059b0ff06534829d337c753d0e59afed6fa489f015cf33
2112664634855999140031945945998785346946804826144846396410436155861557104011009549879696604291518474904522547
1385409854850246784644682622624349784560468558795524903 1524938362073628791222322453937223798227099080053904149
